{
  "status": "OK",
  "data-availability": "available",
  "data": [
    {"page": 1, "pages": 2, "per_page": 10, "count": 10, "total": 15},
    [
      {"glos_id": 1, "title": "Angka Absolut", "description": "Nilai yang menunjukkan jumlah sebenarnya.", "url": "https://www.bps.go.id/id/statistics-table"},
      {"glos_id": 2, "title": "Angka Indeks", "description": "Ukuran statistik untuk perubahan relatif.", "url": null}
    ]
  ]
}
