{
    "status": "OK",
    "data-availability": "available",
    "data": [
        {
            "page": 1,
            "pages": 2,
            "per_page": 10,
            "count": 10,
            "total": 15
        },
        [
            {
                "th_id": 117,
                "th": 2017
            },
            {
                "th_id": 116,
                "th": 2016
            },
            {
                "th_id": 115,
                "th": 2015
            },
            {
                "th_id": 114,
                "th": 2014
            },
            {
                "th_id": 113,
                "th": 2013
            },
            {
                "th_id": 112,
                "th": 2012
            },
            {
                "th_id": 111,
                "th": 2011
            },
            {
                "th_id": 110,
                "th": 2010
            },
            {
                "th_id": 109,
                "th": 2009
            },
            {
                "th_id": 108,
                "th": 2008
            }
        ]
    ]
}
