{
  "status": "OK",
  "data-availability": "available",
  "data": [
    {"page": 1, "pages": 28, "per_page": 10, "count": 10, "total": 273},
    [
      {
        "sdgs_goal": "sdgs_1",
        "sdgs_goal_name": "1. Tanpa Kemiskinan",
        "sdgs_id": "1.2.1*",
        "var_id": 1238,
        "title": "Persentase Penduduk Miskin Di Daerah Tertinggal",
        "sub_id": 181,
        "sub_name": "Tujuan Pembangunan Berkelanjutan Edisi I",
        "def": "Definisi kemiskinan menurut BPS",
        "notes": "<p>Sumber: Susenas BPS</p>",
        "vertical": 333,
        "unit": "Persen",
        "graph_id": 1,
        "graph_name": "bar",
        "meta_activity": "https://sirusa.bps.go.id/sirusa/index.php/apiMetadata/KegiatanDasar?kode=131&tahun=2019",
        "meta_var": "https://sirusa.bps.go.id//sirusa/index.php/sensusMetadataKegiatan/indikator?indikator=1606"
      },
      {
        "sdgs_goal": "sdgs_2",
        "sdgs_goal_name": "2. Tanpa Kelaparan",
        "sdgs_id": "2.1.1*",
        "var_id": 1474,
        "title": "Prevalensi Ketidakcukupan Konsumsi Pangan",
        "sub_id": 181,
        "sub_name": "Tujuan Pembangunan Berkelanjutan Edisi I",
        "def": "",
        "notes": "",
        "vertical": 1,
        "unit": "Persen",
        "graph_id": 1,
        "graph_name": "bar",
        "meta_activity": null,
        "meta_var": null
      }
    ]
  ]
}
