{
    "status": "OK",
    "data-availability": "available",
    "data": [
        {
            "page": 1,
            "pages": 51,
            "per_page": 10,
            "count": 10,
            "total": 501
        },
        [
            {
                "var_id": 192,
                "title": "Persentase Penduduk Miskin (P0) Menurut Provinsi dan Daerah",
                "sub_id": 23,
                "sub_name": "Kemiskinan dan Ketimpangan",
                "subcsa_id": 523,
                "subcsa_name": "Konsumsi dan Pendapatan",
                "def": "",
                "notes": "Data Provinsi Kalimantan Utara pada tahun 2013 dan 2014 masih bergabung dengan Provinsi Kalimantan Timur\t\n",
                "vertical": 1,
                "unit": "Persen",
                "graph_id": 1,
                "graph_name": "bar",
                "turth": 6,
                "turvar": 85,
                "jenis": 1
            },
            {
                "var_id": 543,
                "title": "Tingkat Pengangguran Terbuka Menurut Provinsi",
                "sub_id": 6,
                "sub_name": "Tenaga Kerja",
                "subcsa_id": 520,
                "subcsa_name": "Tenaga Kerja",
                "def": "",
                "notes": "&lt;p&gt;Data 2011-2013 menggunakan Backcast dari Penimbang Proyeksi Komponen                    &lt;br /&gt;Data 2018-2020 menggunakan Backcast dari Penimbang berbasis SUPAS 2015                    &lt;br /&gt;1986-1998, penghitungan tanpa data Provinsi Timor Timor                    &lt;br /&gt;Pada tahun 1995, Sakernas tidak dilaksanakan                    &lt;br /&gt;Pada tahun 2000, tanpa Maluku                    &lt;br /&gt;Sumber: Survei Angkatan Kerja Nasional (Sakernas)                    &lt;br /&gt;&lt;br /&gt;&lt;br /&gt;&lt;/p&gt;&lt;p&gt;&lt;br /&gt;&lt;/p&gt;&lt;p&gt;&lt;br /&gt;&lt;/p&gt;",
                "vertical": 1,
                "unit": "Persen",
                "graph_id": 1,
                "graph_name": "bar",
                "turth": 52,
                "turvar": 0,
                "jenis": 1
            },
            {
                "var_id": 98,
                "title": "Gini Ratio Menurut Provinsi dan Daerah",
                "sub_id": 23,
                "sub_name": "Kemiskinan dan Ketimpangan",
                "subcsa_id": 523,
                "subcsa_name": "Konsumsi dan Pendapatan",
                "def": "",
                "notes": "&lt;p&gt;&lt;br /&gt;&lt;/p&gt;&lt;p&gt;Sumber  : BPS, Susenas  \t  \t  \t  \t  \t  \n&lt;br /&gt;&lt;/p&gt;&lt;p&gt;&lt;br /&gt;&lt;/p&gt;&lt;ul&gt;&lt;li&gt;Tahun 2002, Susenas Modul Konsumsi reguler&lt;/li&gt;\n&lt;li&gt;Tahun 2005, Susenas Panel (Februari)&lt;/li&gt;\n&lt;li&gt;Tahun 2006-2010, Susenas Panel (Maret)&lt;/li&gt;\n&lt;li&gt;Tahun 2011-2016, Susenas Modul Konsumsi (Maret &amp;amp; September)&lt;/li&gt;\n&lt;/ul&gt;&lt;p&gt;&lt;br /&gt;&lt;/p&gt;&lt;p&gt;&lt;br /&gt;&lt;/p&gt;&lt;p&gt;&lt;br /&gt;&lt;/p&gt;",
                "vertical": 1,
                "unit": "Tidak Ada Satuan",
                "graph_id": 1,
                "graph_name": "bar",
                "turth": 6,
                "turvar": 36,
                "jenis": 1
            },
            {
                "var_id": 2207,
                "title": "[Metode Baru] Indeks Pembangunan Manusia menurut Provinsi (Umur Harapan Hidup Hasil Long Form SP2020)",
                "sub_id": 26,
                "sub_name": "Indeks Pembangunan Manusia",
                "subcsa_id": 563,
                "subcsa_name": "Kondisi Tempat Tinggal, Kemiskinan, dan Permasalahan Sosial Lintas Sektor",
                "def": "",
                "notes": "&lt;p&gt;Umur Harapan Hidup (UHH) menggunakan hasil Long Form Sensus Penduduk 2020 (SP2020)&lt;br /&gt;&lt;/p&gt;",
                "vertical": 1,
                "unit": "Tidak Ada Satuan",
                "graph_id": 1,
                "graph_name": "bar",
                "turth": 0,
                "turvar": 0,
                "jenis": 1
            },
            {
                "var_id": 501,
                "title": "Angka Harapan Hidup (AHH) Menurut Provinsi dan Jenis Kelamin",
                "sub_id": 40,
                "sub_name": "Gender",
                "subcsa_id": 522,
                "subcsa_name": "Kesehatan",
                "def": "",
                "notes": "&lt;p&gt;&lt;br /&gt;&lt;/p&gt;&lt;p&gt;&lt;br /&gt;&lt;/p&gt;&lt;p&gt;&lt;br /&gt;&lt;/p&gt;&lt;p&gt;Salah satu variabel pembentuk Indeks Pembangunan Gender (IPG)&lt;br /&gt;&lt;/p&gt;&lt;p&gt;&lt;br /&gt;&lt;/p&gt;&lt;p&gt;&lt;br /&gt;&lt;/p&gt;&lt;p&gt;&lt;br /&gt;&lt;/p&gt;",
                "vertical": 1,
                "unit": "Tahun",
                "graph_id": 1,
                "graph_name": "bar",
                "turth": 0,
                "turvar": 45,
                "jenis": 1
            },
            {
                "var_id": 501,
                "title": "Angka Harapan Hidup (AHH) Menurut Provinsi dan Jenis Kelamin",
                "sub_id": 40,
                "sub_name": "Gender",
                "subcsa_id": 522,
                "subcsa_name": "Kesehatan",
                "def": "",
                "notes": "&lt;p&gt;&lt;br /&gt;&lt;/p&gt;&lt;p&gt;&lt;br /&gt;&lt;/p&gt;&lt;p&gt;&lt;br /&gt;&lt;/p&gt;&lt;p&gt;Salah satu variabel pembentuk Indeks Pembangunan Gender (IPG)&lt;br /&gt;&lt;/p&gt;&lt;p&gt;&lt;br /&gt;&lt;/p&gt;&lt;p&gt;&lt;br /&gt;&lt;/p&gt;&lt;p&gt;&lt;br /&gt;&lt;/p&gt;",
                "vertical": 1,
                "unit": "Tahun",
                "graph_id": 1,
                "graph_name": "bar",
                "turth": 0,
                "turvar": 45,
                "jenis": 1
            },
            {
                "var_id": 1741,
                "title": "NTP (Nilai Tukar Petani) menurut Provinsi (2018=100)",
                "sub_id": 22,
                "sub_name": "Nilai Tukar Petani",
                "subcsa_id": 536,
                "subcsa_name": "Harga-Harga",
                "def": "",
                "notes": "Mulai Januari 2020 menggunakan Tahun Dasar 2018=100",
                "vertical": 1,
                "unit": "Tidak Ada Satuan",
                "graph_id": 3,
                "graph_name": "line",
                "turth": 1,
                "turvar": 3,
                "jenis": 1
            },
            {
                "var_id": 1741,
                "title": "NTP (Nilai Tukar Petani) menurut Provinsi (2018=100)",
                "sub_id": 22,
                "sub_name": "Nilai Tukar Petani",
                "subcsa_id": 536,
                "subcsa_name": "Harga-Harga",
                "def": "",
                "notes": "Mulai Januari 2020 menggunakan Tahun Dasar 2018=100",
                "vertical": 1,
                "unit": "Tidak Ada Satuan",
                "graph_id": 3,
                "graph_name": "line",
                "turth": 1,
                "turvar": 3,
                "jenis": 1
            },
            {
                "var_id": 70,
                "title": "Persentase Penduduk Usia 5 tahun ke atas yang Pernah Mengakses Internet dalam 3 Bulan Terakhir Menurut Provinsi dan Jenis Kelamin",
                "sub_id": 2,
                "sub_name": "Komunikasi",
                "subcsa_id": 565,
                "subcsa_name": "Masyarakat Informasi",
                "def": "",
                "notes": "&lt;p&gt;Sumber: BPS, Survei Sosial Ekonomi Nasional (Susenas).\nCatatan: \n- Pembagi adalah total penduduk laki-laki/perempuan usia 5 tahun ke atas&lt;br /&gt;&lt;/p&gt;",
                "vertical": 1,
                "unit": "Tidak Ada Satuan",
                "graph_id": 1,
                "graph_name": "bar",
                "turth": 0,
                "turvar": 45,
                "jenis": 0
            },
            {
                "var_id": 111,
                "title": "Persentase Rumah Tangga yang Memiliki/Menguasai  Telepon Tetap Kabel Menurut Provinsi dan Klasifikasi Daerah",
                "sub_id": 2,
                "sub_name": "Komunikasi",
                "subcsa_id": 565,
                "subcsa_name": "Masyarakat Informasi",
                "def": "",
                "notes": "Sumber: BPS, Survei Sosial Ekonomi Nasional (Susenas).\nCatatan: \n- Untuk perkotaan, pembagi adalah total rumah tangga  di daerah perkotaan\n- Untuk perdesaan, pembagi adalah total rumah tangga di daerah perdesaan\n- Untuk perkotaan+perdesaan, pembagi adalah total rumah tangga di daerah perkotaan dan perdesaan",
                "vertical": 1,
                "unit": "Tidak Ada Satuan",
                "graph_id": 1,
                "graph_name": "bar",
                "turth": 0,
                "turvar": 36,
                "jenis": 0
            }
        ]
    ]
}