{
    "status": "OK",
    "data-availability": "available",
    "data": [
        {
            "page": 2,
            "pages": 2,
            "per_page": 10,
            "count": 4,
            "total": 14
        },
        [
            {
                "kode_ver_id": 7211,
                "vervar": "Banggai Laut",
                "item_ver_id": 249,
                "group_ver_id": 1,
                "name_group_ver_id": "Province"
            },
            {
                "kode_ver_id": 7212,
                "vervar": "Morowali Utara ",
                "item_ver_id": 250,
                "group_ver_id": 1,
                "name_group_ver_id": "Province"
            },
            {
                "kode_ver_id": 7271,
                "vervar": "Palu City",
                "item_ver_id": 251,
                "group_ver_id": 1,
                "name_group_ver_id": "Province"
            },
            {
                "kode_ver_id": 9999,
                "vervar": "Sulawesi Tengah",
                "item_ver_id": 252,
                "group_ver_id": 1,
                "name_group_ver_id": "Province"
            }
        ]
    ]
}